%YAML 1.1
%TAG !u! tag:unity3d.com,2011:
--- !u!162 &1
EditorUserSettings:
  m_ObjectHideFlags: 0
  serializedVersion: 4
  m_ConfigSettings:
    RecentlyUsedSceneGuid-0:
      value: 5a5757560101590a5d0c0e24427b5d44434e4c7a7b7a23677f2b4565b7b5353a
      flags: 0
    RecentlyUsedSceneGuid-1:
      value: 5a55000356570f0e0b595c7616740f44154e487c7f79733228781835bbb3616a
      flags: 0
    RecentlyUsedSceneGuid-2:
      value: 5b000404010259020e0c5f754473594114464f722d7b74617d2a4531e0b8313c
      flags: 0
    RecentlyUsedSceneGuid-3:
      value: 5a5257000650580d58580a7316775d444016197c7c712333797e4f64b4e6316c
      flags: 0
    RecentlyUsedSceneGuid-4:
      value: 050300535200585a5a56087113225c444415487d2a7a7168292d4465e1e26739
      flags: 0
    vcSharedLogLevel:
      value: 0d5e400f0650
      flags: 0
  m_VCAutomaticAdd: 1
  m_VCDebugCom: 0
  m_VCDebugCmd: 0
  m_VCDebugOut: 0
  m_SemanticMergeMode: 2
  m_DesiredImportWorkerCount: 2
  m_StandbyImportWorkerCount: 2
  m_IdleImportWorkerShutdownDelay: 60000
  m_VCShowFailedCheckout: 1
  m_VCOverwriteFailedCheckoutAssets: 1
  m_VCProjectOverlayIcons: 1
  m_VCHierarchyOverlayIcons: 1
  m_VCOtherOverlayIcons: 1
  m_VCAllowAsyncUpdate: 1
  m_ArtifactGarbageCollection: 1
